{
  "Anim":{
    "name":"Animation",
    "template":"animation: $0;",
    "values":[
      "<name>,<duration>,<timefunc>,<delay>,<iteration>,<direction>"
    ],
    "desc":"A shorthand property for animation-name, animation-duration, animation-timing-function, animation-delay, animation-iteration-count, animation-direction, animation-fill-mode and and animation-play-state."
  },
  "Animdel":{
    "name":"Animation delay",
    "template":"animation-delay: $0;",
    "values":[
      "<delay>"
    ],
    "desc":"Sets the delay before playing the animation."
  },
  "Animdir":{
    "name":"Animation direction",
    "template":"animation-direction: $0;",
    "aliases":{
      "a":"alternate",
      "ar":"alternate-reverse",
      "n":"normal",
      "r":"reverse"
    },
    "values":[
      "alternate",
      "alternate-reverse",
      "normal",
      "reverse"
    ],
    "desc":"Sets the animation play direction e.g reverse or normal."
  },
  "Animdur":{
    "name":"Animation duration",
    "template":"animation-duration: $0;",
    "values":[
      "<duration>"
    ],
    "desc":"Sets the length of time that an animation should take to complete."
  },
  "Animfm":{
    "name":"Animation fill mode",
    "template":"animation-fill-mode: $0;",
    "aliases":{
      "b":"backwards",
      "bo":"both",
      "f":"forwards",
      "n":"none"
    },
    "values":[
      "backwards",
      "both",
      "forwards",
      "none"
    ],
    "desc":"Sets how a CSS animation should apply styles to its target."
  },
  "Animic":{
    "name":"Animation iteration count",
    "template":"animation-iteration-count: $0;",
    "aliases":{
      "i":"infinite"
    },
    "values":[
      "infinite"
    ],
    "desc":"Defines the number of times an animation cycle should be played."
  },
  "Animn":{
    "name":"Animation name",
    "template":"animation-name: $0;",
    "aliases":{
      "n":"none"
    },
    "values":[
      "none"
    ],
    "desc":"Sets a list of animations that should be applied to the selected element."
  },
  "Animps":{
    "name":"Animation play state",
    "template":"animation-play-state: $0;",
    "aliases":{
      "p":"paused",
      "r":"running"
    },
    "values":[
      "paused",
      "running"
    ],
    "desc":"Determines whether an animation is running or paused."
  },
  "Animtf":{
    "name":"Animation timing function",
    "template":"animation-timing-function: $0;",
    "aliases":{
      "e":"ease",
      "ei":"ease-in",
      "eo":"ease-out",
      "eio":"ease-in-out",
      "l":"linear",
      "se":"step-end",
      "ss":"step-start"
    },
    "values":[
      "cubic-bezier(.42, 0, .58, 1)",
      "ease",
      "ease-in",
      "ease-in-out",
      "ease-out",
      "linear",
      "step-end",
      "step-start",
      "steps()"
    ],
    "desc":"Sets how a CSS animation should progress over the duration cycle."
  },
  "Bd":{
    "name":"Border",
    "template":"border: $0 $1 $2;",
    "aliases":{
      "d":"dotted",
      "da":"dashed",
      "do":"double",
      "g":"groove",
      "h":"hidden",
      "i":"inset",
      "n":"none",
      "o":"outset",
      "r":"ridge",
      "s":"solid"
    },
    "values":[
      "<width>,<style>,<color>",
      "<style>"
    ],
    "desc":"Sets all borders of an element. Style may be one of: `none`, `hidden`, `dotted`, `dashed`, `solid`, `double`, `groove`, `ridge`, `inset`, or `outset`."
  },
  "Bdx":{
    "name":"Border X",
    "template":"border-left: $0 $1 $2; border-right: $0 $1 $2;",
    "aliases":{
      "d":"dotted",
      "da":"dashed",
      "do":"double",
      "g":"groove",
      "h":"hidden",
      "i":"inset",
      "n":"none",
      "o":"outset",
      "r":"ridge",
      "s":"solid"
    },
    "values":[
      "<width>,<style>,<color>",
      "<style>"
    ],
    "desc":"Sets the left and right borders of an element."
  },
  "Bdy":{
    "name":"Border Y",
    "template":"border-top: $0 $1 $2; border-bottom: $0 $1 $2;",
    "aliases":{
      "d":"dotted",
      "da":"dashed",
      "do":"double",
      "g":"groove",
      "h":"hidden",
      "i":"inset",
      "n":"none",
      "o":"outset",
      "r":"ridge",
      "s":"solid"
    },
    "values":[
      "<width>,<style>,<color>",
      "<style>"
    ],
    "desc":"Sets the top and bottom borders of an element."
  },
  "Bdt":{
    "name":"Border Top",
    "template":"border-top: $0 $1 $2;",
    "aliases":{
      "d":"dotted",
      "da":"dashed",
      "do":"double",
      "g":"groove",
      "h":"hidden",
      "i":"inset",
      "n":"none",
      "o":"outset",
      "r":"ridge",
      "s":"solid"
    },
    "values":[
      "<width>,<style>,<color>",
      "<style>"
    ],
    "desc":"Sets the top border of an element."
  },
  "Bdr":{
    "name":"Border Right",
    "template":"border-right: $0 $1 $2;",
    "aliases":{
      "d":"dotted",
      "da":"dashed",
      "do":"double",
      "g":"groove",
      "h":"hidden",
      "i":"inset",
      "n":"none",
      "o":"outset",
      "r":"ridge",
      "s":"solid"
    },
    "values":[
      "<width>,<style>,<color>",
      "<style>"
    ],
    "desc":"Sets the right border of an element."
  },
  "Bdb":{
    "name":"Border Bottom",
    "template":"border-bottom: $0 $1 $2;",
    "aliases":{
      "d":"dotted",
      "da":"dashed",
      "do":"double",
      "g":"groove",
      "h":"hidden",
      "i":"inset",
      "n":"none",
      "o":"outset",
      "r":"ridge",
      "s":"solid"
    },
    "values":[
      "<width>,<style>,<color>",
      "<style>"
    ],
    "desc":"Sets the bottom border of an element."
  },
  "Bdl":{
    "name":"Border Left",
    "template":"border-left: $0 $1 $2;",
    "aliases":{
      "d":"dotted",
      "da":"dashed",
      "do":"double",
      "g":"groove",
      "h":"hidden",
      "i":"inset",
      "n":"none",
      "o":"outset",
      "r":"ridge",
      "s":"solid"
    },
    "values":[
      "<width>,<style>,<color>",
      "<style>"
    ],
    "desc":"Sets the left border of an element."
  },
  "Bdc":{
    "name":"Border Color",
    "template":"border-color: $0;",
    "values":[
      "currentColor",
      "inherit",
      "transparent"
    ],
    "desc":"Sets the color of the border of an element."
  },
  "Bdtc":{
    "name":"Border Top Color",
    "template":"border-top-color: $0;",
    "values":[
      "currentColor",
      "inherit",
      "transparent"
    ],
    "desc":"Sets the color of the top border of an element."
  },
  "Bdendc":{
    "name":"Border Right Color",
    "template":"border-right-color: $0;",
    "values":[
      "currentColor",
      "inherit",
      "transparent"
    ],
    "desc":"Sets the color of the right border of an element."
  },
  "Bdbc":{
    "name":"Border Bottom Color",
    "template":"border-bottom-color: $0;",
    "values":[
      "currentColor",
      "inherit",
      "transparent"
    ],
    "desc":"Sets the color of the bottom border of an element."
  },
  "Bdstartc":{
    "name":"Border Left Color",
    "template":"border-left-color: $0;",
    "values":[
      "currentColor",
      "inherit",
      "transparent"
    ],
    "desc":"Sets the color of the bottom border of an element."
  },
  "Bdsp":{
    "name":"Border Spacing",
    "template":"border-spacing: $0 $1;",
    "aliases":{
      "i":"inherit"
    },
    "values":[
      "inherit"
    ],
    "desc":"Sets the distance between the borders of adjacent table cells (only (only for the separated borders model)."
  },
  "Bds":{
    "name":"Border Style",
    "template":"border-style: $0;",
    "aliases":{
      "d":"dotted",
      "da":"dashed",
      "do":"double",
      "g":"groove",
      "h":"hidden",
      "i":"inset",
      "n":"none",
      "o":"outset",
      "r":"ridge",
      "s":"solid"
    },
    "values":[
      "dashed",
      "dotted",
      "double",
      "groove",
      "hidden",
      "inset",
      "none",
      "outset",
      "ridge",
      "solid",
      "inherit"
    ],
    "desc":"A shorthand property for setting the line style for all four sides of the the elements border."
  },
  "Bdts":{
    "name":"Border Top Style",
    "template":"border-top-style: $0;",
    "aliases":{
      "d":"dotted",
      "da":"dashed",
      "do":"double",
      "g":"groove",
      "h":"hidden",
      "i":"inset",
      "n":"none",
      "o":"outset",
      "r":"ridge",
      "s":"solid"
    },
    "values":[
      "dashed",
      "dotted",
      "double",
      "groove",
      "hidden",
      "inset",
      "none",
      "outset",
      "ridge",
      "solid",
      "inherit"
    ],
    "desc":"Sets the line style of the top border of a box."
  },
  "Bdends":{
    "name":"Border Right Style",
    "template":"border-right-style: $0;",
    "aliases":{
      "d":"dotted",
      "da":"dashed",
      "do":"double",
      "g":"groove",
      "h":"hidden",
      "i":"inset",
      "n":"none",
      "o":"outset",
      "r":"ridge",
      "s":"solid"
    },
    "values":[
      "dashed",
      "dotted",
      "double",
      "groove",
      "hidden",
      "inset",
      "none",
      "outset",
      "ridge",
      "solid",
      "inherit"
    ],
    "desc":"Sets the line style of the right border of a box."
  },
  "Bdbs":{
    "name":"Border Bottom Style",
    "template":"border-bottom-style: $0;",
    "aliases":{
      "d":"dotted",
      "da":"dashed",
      "do":"double",
      "g":"groove",
      "h":"hidden",
      "i":"inset",
      "n":"none",
      "o":"outset",
      "r":"ridge",
      "s":"solid"
    },
    "values":[
      "dashed",
      "dotted",
      "double",
      "groove",
      "hidden",
      "inset",
      "none",
      "outset",
      "ridge",
      "solid",
      "inherit"
    ],
    "desc":"Sets the line style of the bottom border of a box."
  },
  "Bdstarts":{
    "name":"Border Left Style",
    "template":"border-left-style: $0;",
    "aliases":{
      "d":"dotted",
      "da":"dashed",
      "do":"double",
      "g":"groove",
      "h":"hidden",
      "i":"inset",
      "n":"none",
      "o":"outset",
      "r":"ridge",
      "s":"solid"
    },
    "values":[
      "dashed",
      "dotted",
      "double",
      "groove",
      "hidden",
      "inset",
      "none",
      "outset",
      "ridge",
      "solid",
      "inherit"
    ],
    "desc":"Sets the line style of the left border of a box."
  },
  "Bdw":{
    "name":"Border Width",
    "template":"border-width: $0;",
    "aliases":{
      "m":"medium",
      "t":"thin",
      "th":"thick"
    },
    "values":[
      "medium",
      "thin",
      "thick",
      "inherit"
    ],
    "desc":"Sets the width of the border of an element."
  },
  "Bdtw":{
    "name":"Border Top Width",
    "template":"border-top-width: $0;",
    "aliases":{
      "m":"medium",
      "t":"thin",
      "th":"thick"
    },
    "values":[
      "medium",
      "thin",
      "thick",
      "inherit"
    ],
    "desc":"Sets the width of the top border of a box."
  },
  "Bdendw":{
    "name":"Border Right Width",
    "template":"border-right-width: $0;",
    "aliases":{
      "m":"medium",
      "t":"thin",
      "th":"thick"
    },
    "values":[
      "medium",
      "thin",
      "thick",
      "inherit"
    ],
    "desc":"Sets the width of the right border of a box."
  },
  "Bdbw":{
    "name":"Border Bottom Width",
    "template":"border-bottom-width: $0;",
    "aliases":{
      "m":"medium",
      "t":"thin",
      "th":"thick"
    },
    "values":[
      "medium",
      "thin",
      "thick",
      "inherit"
    ],
    "desc":"Sets the width of the bottom border of a box."
  },
  "Bdstartw":{
    "name":"Border Left Width",
    "template":"border-left-width: $0;",
    "aliases":{
      "m":"medium",
      "t":"thin",
      "th":"thick"
    },
    "values":[
      "medium",
      "thin",
      "thick",
      "inherit"
    ],
    "desc":"Sets the width of the left border of a box."
  },
  "Bdrs":{
    "name":"Border Radius",
    "template":"border-radius: $0;",
    "values":[
      "<length>"
    ],
    "desc":"Sets how rounded border corners are."
  },
  "Bdrstr":{
    "name":"Border Radius Top Right",
    "template":"border-top-right-radius: $0;",
    "values":[
      "<unit>"
    ],
    "desc":"Sets the rounding of the top-right corner of the element."
  },
  "Bdrsbr":{
    "name":"Border Radius Bottom Right",
    "template":"border-bottom-right-radius: $0;",
    "values":[
      "<unit>"
    ],
    "desc":"Sets the rounding of the bottom-right corner of the element"
  },
  "Bdrsbl":{
    "name":"Border Radius Bottom Left",
    "template":"border-bottom-left-radius: $0;",
    "values":[
      "<unit>"
    ],
    "desc":"Sets the rounding of the bottom-left corner of the element"
  },
  "Bdrstl":{
    "name":"Border Radius Top Left",
    "template":"border-top-left-radius: $0;",
    "values":[
      "<unit>"
    ],
    "desc":"Sets the rounding of the top-left corner of the element."
  },
  "Bg":{
    "name":"Background",
    "template":"background: $0 $1 $2 $3 $4 $5 $6;",
    "aliases":{
      "n":"none",
      "t":"transparent"
    },
    "values":[
      "<bg-color>,<bg-image>,<bg-origin>,<bg-pos>,<bg-repeat>,<bg-size>"
    ],
    "desc":"Sets background-color, background-image, background-origin, background-position, background-repeat, background-size."
  },
  "Bgi":{
    "name":"Background Image",
    "template":"background-image: $0;",
    "aliases":{
      "n":"none"
    },
    "values":[
      "image()",
      "linear-gradient()",
      "radial-gradient()",
      "repeating-linear-gradient()",
      "repeating-radial-gradient()",
      "url()"
    ],
    "desc":"Sets one or several background images for an element."
  },
  "Bgc":{
    "name":"Background Color",
    "template":"background-color: $0;",
    "values":[
      "currentColor",
      "inherit",
      "transparent"
    ],
    "desc":"Sets the background color of an element, either through a color value"
  },
  "Bgcp":{
    "name":"Background Clip",
    "template":"background-clip: $0;",
    "aliases":{
      "bb":"border-box",
      "cb":"content-box",
      "pb":"padding-box"
    },
    "values":[
      "border-box",
      "content-box",
      "padding-box",
      "inherit"
    ],
    "desc":"Sets whether an element's background, either the color or image"
  },
  "Bgo":{
    "name":"Background Origin",
    "template":"background-origin: $0;",
    "aliases":{
      "bb":"border-box",
      "cb":"content-box",
      "pb":"padding-box"
    },
    "values":[
      "border-box",
      "content-box",
      "padding-box",
      "inherit"
    ],
    "desc":"Determines the background positioning area, that is the position of of the origin of an image specified using the background-image CSS property."
  },
  "Bgz":{
    "name":"Background Size",
    "template":"background-size: $0;",
    "aliases":{
      "a":"auto",
      "ct":"contain",
      "cv":"cover"
    },
    "values":[
      "auto",
      "contain",
      "cover"
    ],
    "desc":"Sets the size of the background images."
  },
  "Bga":{
    "name":"Background Attachment",
    "template":"background-attachment: $0;",
    "aliases":{
      "f":"fixed",
      "l":"local",
      "s":"scroll"
    },
    "values":[
      "fixed",
      "local",
      "scroll",
      "inherit"
    ],
    "desc":"If a background-image is specified, the background-attachment CSS property determines whether that image's"
  },
  "Bgp":{
    "name":"Background Position",
    "template":"background-position: $0 $1;",
    "aliases":{
      "start_t":"left 0",
      "end_t":"right 0",
      "start_b":"left 100%",
      "end_b":"right 100%",
      "start_c":"left center",
      "end_c":"right center",
      "c_b":"center 100%",
      "c_t":"center 0",
      "c":"center"
    },
    "values":[
      "left",
      "center",
      "right",
      "bottom",
      "top"
    ],
    "desc":"Sets the initial position, relative to the background position layer layer defined by background-origin for each defined background image."
  },
  "Bgpx":{
    "name":"Background Position (X axis)",
    "template":"background-position-x: $0;",
    "aliases":{
      "l":"left",
      "r":"right",
      "c":"50%"
    }
  },
  "Bgpy":{
    "name":"Background Position (Y axis)",
    "template":"background-position-y: $0;",
    "aliases":{
      "t":"0",
      "b":"100%",
      "c":"50%"
    }
  },
  "Bgr":{
    "name":"Background Repeat",
    "template":"background-repeat: $0;",
    "aliases":{
      "nr":"no-repeat",
      "rx":"repeat-x",
      "ry":"repeat-y",
      "r":"repeat",
      "s":"space",
      "ro":"round"
    },
    "values":[
      "no-repeat",
      "repeat",
      "repeat-x",
      "repeat-y",
      "round",
      "space"
    ],
    "desc":"Defines how background images are repeated."
  },
  "Bdcl":{
    "name":"Border Collapse",
    "template":"border-collapse: $0;",
    "aliases":{
      "c":"collapse",
      "s":"separate"
    },
    "values":[
      "collapse",
      "separate",
      "inherit"
    ],
    "desc":"Determines whether a table's borders are separated or collapsed."
  },
  "Bxz":{
    "name":"Box Sizing",
    "template":"box-sizing: $0;",
    "aliases":{
      "cb":"content-box",
      "pb":"padding-box",
      "bb":"border-box"
    },
    "values":[
      "border-box",
      "content-box",
      "padding-box",
      "inherit"
    ],
    "desc":"Used to alter the default CSS box model used to calculate widths and heights of browsers that do not correctly support the CSS box model specification."
  },
  "Bxsh":{
    "name":"Box Shadow",
    "template":"box-shadow: $0;",
    "aliases":{
      "n":"none"
    },
    "values":[
      "effect"
    ],
    "desc":"Sets one or more shadow effects as a comma-separated list."
  },
  "Cl":{
    "name":"Clear",
    "template":"clear: $0;",
    "aliases":{
      "n":"none",
      "b":"both",
      "l":"left",
      "r":"right"
    },
    "values":[
      "both",
      "left",
      "none",
      "right",
      "inherit"
    ],
    "desc":"Sets whether an element can be next to floating elements that precede it or must be moved down (cleared) below them."
  },
  "C":{
    "name":"Color",
    "template":"color: $0;",
    "values":[
      "<value>",
      "currentColor",
      "inherit",
      "transparent"
    ],
    "desc":"Sets the foreground color of an element's text content, and its decorations."
  },
  "Cnt":{
    "name":"Content",
    "template":"content: $0;",
    "aliases":{
      "n":"none",
      "nor":"normal",
      "oq":"open-quote",
      "cq":"close-quote",
      "noq":"no-open-quote",
      "ncq":"no-close-quote"
    },
    "values":[
      "attr()",
      "close-quote",
      "no-close-quote",
      "no-open-quote",
      "normal",
      "none",
      "open-quote",
      "inherit"
    ],
    "desc":"Used with the ::before and ::after pseudo-elements to generate content in in an element."
  },
  "Cur":{
    "name":"Cursor",
    "template":"cursor: $0;",
    "aliases":{
      "a":"auto",
      "as":"all-scroll",
      "c":"cell",
      "cr":"col-resize",
      "co":"copy",
      "cro":"crosshair",
      "d":"default",
      "er":"e-resize",
      "ewr":"ew-resize",
      "g":"grab",
      "gr":"grabbing",
      "h":"help",
      "m":"move",
      "n":"none",
      "nd":"no-drop",
      "na":"not-allowed",
      "nr":"n-resize",
      "ner":"ne-resize",
      "neswr":"nesw-resize",
      "nwser":"nwse-resize",
      "nsr":"ns-resize",
      "nwr":"nw-resize",
      "p":"pointer",
      "pr":"progress",
      "rr":"row-resize",
      "sr":"s-resize",
      "ser":"se-resize",
      "swr":"sw-resize",
      "t":"text",
      "vt":"vertical-text",
      "w":"wait",
      "wr":"w-resize",
      "zi":"zoom-in",
      "zo":"zoom-out"
    },
    "values":[
      "alias",
      "all-scroll",
      "auto",
      "cell",
      "col-resize",
      "context-menu",
      "copy",
      "crosshair",
      "default",
      "e-resize",
      "ew-resize",
      "grab",
      "grabbing",
      "help",
      "inherit",
      "move",
      "n-resize",
      "ne-resize",
      "nesw-resize",
      "no-drop",
      "none",
      "not-allowed",
      "ns-resize",
      "nw-resize",
      "nwse-resize",
      "pointer",
      "progress",
      "row-resize",
      "s-resize",
      "se-resize",
      "sw-resize",
      "text",
      "vertical-text",
      "w-resize",
      "wait",
      "zoom-in",
      "zoom-out"
    ],
    "desc":"Sets the mouse cursor displayed when the mouse pointer is over an element"
  },
  "D":{
    "name":"Display",
    "template":"display: $0;",
    "aliases":{
      "n":"none",
      "b":"block",
      "f":"flex",
      "if":"inline-flex",
      "i":"inline",
      "ib":"inline-block",
      "tb":"table",
      "tbr":"table-row",
      "tbc":"table-cell",
      "li":"list-item",
      "ri":"run-in",
      "cp":"compact",
      "itb":"inline-table",
      "tbcl":"table-column",
      "tbclg":"table-column-group",
      "tbhg":"table-header-group",
      "tbfg":"table-footer-group",
      "tbrg":"table-row-group"
    },
    "values":[
      "block",
      "flex",
      "grid",
      "inline",
      "inline-block",
      "inline-flex",
      "inline-grid",
      "inline-table",
      "list-item",
      "none",
      "run-in",
      "table",
      "table-caption",
      "table-cell",
      "table-column",
      "table-column-group",
      "table-footer-group",
      "table-header-group",
      "table-row",
      "table-row-group",
      "inherit"
    ],
    "desc":"Sets the type of rendering box used for an element."
  },
  "Fil":{
    "name":"Filter",
    "template":"filter: $0;",
    "aliases":{
      "n":"none"
    },
    "values":[
      "blur()",
      "brightness()",
      "contrast()",
      "custom()",
      "drop-shadow()",
      "grayscale()",
      "hue-rotate()",
      "invert()",
      "none",
      "opacity()",
      "sepia()",
      "saturate()",
      "url()"
    ],
    "desc":"Provides for effects like blurring or color shifting on an element's rendering before before the element is displayed."
  },
  "Blur":{
    "name":"Blur (filter)",
    "template":"filter: blur($0);",
    "values":[
      "blur()",
      "brightness()",
      "contrast()",
      "custom()",
      "drop-shadow()",
      "grayscale()",
      "hue-rotate()",
      "invert()",
      "none",
      "opacity()",
      "sepia()",
      "saturate()",
      "url()"
    ],
    "desc":"Provides for effects like blurring or color shifting on an element's rendering before before the element is displayed."
  },
  "Brightness":{
    "name":"Brightness (filter)",
    "template":"filter: brightness($0);",
    "values":[
      "blur()",
      "brightness()",
      "contrast()",
      "custom()",
      "drop-shadow()",
      "grayscale()",
      "hue-rotate()",
      "invert()",
      "none",
      "opacity()",
      "sepia()",
      "saturate()",
      "url()"
    ],
    "desc":"Provides for effects like blurring or color shifting on an element's rendering before before the element is displayed."
  },
  "Contrast":{
    "name":"Contrast (filter)",
    "template":"filter: contrast($0);",
    "values":[
      "blur()",
      "brightness()",
      "contrast()",
      "custom()",
      "drop-shadow()",
      "grayscale()",
      "hue-rotate()",
      "invert()",
      "none",
      "opacity()",
      "sepia()",
      "saturate()",
      "url()"
    ],
    "desc":"Provides for effects like blurring or color shifting on an element's rendering before before the element is displayed."
  },
  "Dropshadow":{
    "name":"Drop Shadow (filter)",
    "template":"filter: drop-shadow($0);",
    "values":[
      "blur()",
      "brightness()",
      "contrast()",
      "custom()",
      "drop-shadow()",
      "grayscale()",
      "hue-rotate()",
      "invert()",
      "none",
      "opacity()",
      "sepia()",
      "saturate()",
      "url()"
    ],
    "desc":"Provides for effects like blurring or color shifting on an element's rendering before before the element is displayed."
  },
  "Grayscale":{
    "name":"Grayscale (filter)",
    "template":"filter: grayscale($0);",
    "values":[
      "blur()",
      "brightness()",
      "contrast()",
      "custom()",
      "drop-shadow()",
      "grayscale()",
      "hue-rotate()",
      "invert()",
      "none",
      "opacity()",
      "sepia()",
      "saturate()",
      "url()"
    ],
    "desc":"Provides for effects like blurring or color shifting on an element's rendering before before the element is displayed."
  },
  "HueRotate":{
    "name":"Hue Rotate (filter)",
    "template":"filter: hue-rotate($0);",
    "values":[
      "blur()",
      "brightness()",
      "contrast()",
      "custom()",
      "drop-shadow()",
      "grayscale()",
      "hue-rotate()",
      "invert()",
      "none",
      "opacity()",
      "sepia()",
      "saturate()",
      "url()"
    ],
    "desc":"Provides for effects like blurring or color shifting on an element's rendering before before the element is displayed."
  },
  "Invert":{
    "name":"Invert (filter)",
    "template":"filter: invert($0);",
    "values":[
      "blur()",
      "brightness()",
      "contrast()",
      "custom()",
      "drop-shadow()",
      "grayscale()",
      "hue-rotate()",
      "invert()",
      "none",
      "opacity()",
      "sepia()",
      "saturate()",
      "url()"
    ],
    "desc":"Provides for effects like blurring or color shifting on an element's rendering before before the element is displayed."
  },
  "Opacity":{
    "name":"Opacity (filter)",
    "template":"filter: opacity($0);",
    "values":[
      "blur()",
      "brightness()",
      "contrast()",
      "custom()",
      "drop-shadow()",
      "grayscale()",
      "hue-rotate()",
      "invert()",
      "none",
      "opacity()",
      "sepia()",
      "saturate()",
      "url()"
    ],
    "desc":"Provides for effects like blurring or color shifting on an element's rendering before before the element is displayed."
  },
  "Saturate":{
    "name":"Saturate (filter)",
    "template":"filter: saturate($0);",
    "values":[
      "blur()",
      "brightness()",
      "contrast()",
      "custom()",
      "drop-shadow()",
      "grayscale()",
      "hue-rotate()",
      "invert()",
      "none",
      "opacity()",
      "sepia()",
      "saturate()",
      "url()"
    ],
    "desc":"Provides for effects like blurring or color shifting on an element's rendering before before the element is displayed."
  },
  "Sepia":{
    "name":"Sepia (filter)",
    "template":"filter: sepia($0);",
    "values":[
      "blur()",
      "brightness()",
      "contrast()",
      "custom()",
      "drop-shadow()",
      "grayscale()",
      "hue-rotate()",
      "invert()",
      "none",
      "opacity()",
      "sepia()",
      "saturate()",
      "url()"
    ],
    "desc":"Provides for effects like blurring or color shifting on an element's rendering before before the element is displayed."
  },
  "Flx":{
    "name":"Flex",
    "template":"flex: $0 $1 $2;",
    "aliases":{
      "a":"auto",
      "n":"none"
    },
    "values":[
      "auto",
      "initial",
      "none"
    ],
    "desc":"A shorthand property specifying the ability of a flex item to alter its dimensions available space."
  },
  "Flxg":{
    "name":"Flex Grow",
    "template":"flex-grow: $0;",
    "values":[
      "<factor>"
    ],
    "desc":"Sets the flex grow factor of a flex item."
  },
  "Flxs":{
    "name":"Flex Shrink",
    "template":"flex-shrink: $0;",
    "values":[
      "<factor>"
    ],
    "desc":"Sets the flex shrink factor of a flex item."
  },
  "Flxb":{
    "name":"Flex Basis",
    "template":"flex-basis: $0;",
    "aliases":{
      "a":"auto",
      "n":"none"
    },
    "values":[
      "auto"
    ],
    "desc":"Sets the flex basis which is the initial main size of a flex item."
  },
  "As":{
    "name":"Flex Align Self",
    "template":"align-self: $0;",
    "aliases":{
      "a":"auto",
      "fs":"flex-start",
      "fe":"flex-end",
      "c":"center",
      "b":"baseline",
      "st":"stretch"
    },
    "values":[
      "auto",
      "baseline",
      "center",
      "flex-end",
      "flex-start",
      "stretch"
    ],
    "desc":"Aligns flex items of the current flex line overriding the align-items value item's cross-axis margin is set to auto, then align-self is ignored."
  },
  "Fld":{
    "name":"Flex Direction",
    "template":"flex-direction: $0;",
    "aliases":{
      "r":"row",
      "rr":"row-reverse",
      "c":"column",
      "cr":"column-reverse"
    },
    "values":[
      "column",
      "column-reverse",
      "row",
      "row-reverse"
    ],
    "desc":"Sets how flex items are placed in the flex container defining the the main axis and the direction (normal or reversed)."
  },
  "Flf":{
    "name":"Flex Flow",
    "template":"flex-flow: $0;",
    "aliases":{
      "r":"row",
      "rr":"row-reverse",
      "c":"column",
      "cr":"column-reverse",
      "nw":"nowrap",
      "w":"wrap",
      "wr":"wrap-reverse"
    },
    "values":[
      "column",
      "column-reverse",
      "nowrap",
      "row",
      "row-reverse",
      "wrap",
      "wrap-reverse"
    ],
    "desc":"A shorthand property for flex-direction and flex-wrap individual properties"
  },
  "Ai":{
    "name":"Flex Align Items",
    "template":"align-items: $0;",
    "aliases":{
      "fs":"flex-start",
      "fe":"flex-end",
      "c":"center",
      "b":"baseline",
      "st":"stretch"
    },
    "values":[
      "baseline",
      "center",
      "flex-end",
      "flex-start",
      "stretch"
    ],
    "desc":"Aligns flex items of the current flex line the same way as justify-content"
  },
  "Ac":{
    "name":"Flex Align Content",
    "template":"align-content: $0;",
    "aliases":{
      "fs":"flex-start",
      "fe":"flex-end",
      "c":"center",
      "sb":"space-between",
      "sa":"space-around",
      "st":"stretch"
    },
    "values":[
      "center",
      "flex-end",
      "flex-start",
      "space-around",
      "space-between",
      "stretch"
    ],
    "desc":"Aligns a flex container's lines within the flex container when there is"
  },
  "Or":{
    "name":"Order",
    "template":"order: $0;",
    "values":[
      "<integer>"
    ],
    "desc":"Sets the order of flex items in their flex container. e.g | [order:-5] [order:1] [order:2] [order:100] |"
  },
  "Jc":{
    "name":"Flex Justify Content",
    "template":"justify-content: $0;",
    "aliases":{
      "fs":"flex-start",
      "fe":"flex-end",
      "c":"center",
      "sb":"space-between",
      "sa":"space-around"
    },
    "values":[
      "center",
      "flex-end",
      "flex-start",
      "space-around",
      "space-between"
    ],
    "desc":"Defines how the browser distributes space between and around flex items"
  },
  "Flw":{
    "name":"Flex Wrap",
    "template":"flex-wrap: $0;",
    "aliases":{
      "nw":"nowrap",
      "w":"wrap",
      "wr":"wrap-reverse"
    },
    "values":[
      "nowrap",
      "wrap",
      "wrap-reverse"
    ],
    "desc":"Sets whether flex items are forced into a single line or can be wrapped wrapped onto multiple lines."
  },
  "Fl":{
    "name":"Float",
    "template":"float: $0;",
    "aliases":{
      "n":"none",
      "l":"left",
      "r":"right"
    },
    "values":[
      "left",
      "right",
      "none",
      "inherit"
    ],
    "desc":"Sets that an element should be taken from the normal flow and placed along"
  },
  "Ft":{
    "name":"Font",
    "template":"font: $0 $1 $2 $3 $4 $5;",
    "values":[
      "<size>,<family>",
      "<style>,<size>,<family>",
      "<style>,<variant>,<weight>,<size>/<height>,<family>",
      "<style>,<variant>,<weight>,<stretch>,<size>/<height>,<family>"
    ],
    "desc":"Shorthand property for setting font-style, font-variant, font-weight, font-size, line-height and font-family. All properties other than size and family can take `normal` to sanely default."
  },
  "Ff":{
    "name":"Font Family",
    "template":"font-family: $0;",
    "aliases":{
      "m":"monospace",
      "s":"serif",
      "ss":"sans-serif"
    },
    "values":[
      "cursive",
      "fantasy",
      "inherit",
      "monospace",
      "sans-serif",
      "serif"
    ],
    "desc":"Lets you set a single, or a list, of font family names and/or generic-selectors the first available is applied."
  },
  "Fw":{
    "name":"Font Weight",
    "template":"font-weight: $0;",
    "aliases":{
      "b":"bold",
      "br":"bolder",
      "lr":"lighter",
      "n":"normal"
    },
    "values":[
      "bold",
      "bolder",
      "lighter",
      "normal",
      "100",
      "200",
      "300",
      "400",
      "500",
      "600",
      "700",
      "800",
      "900",
      "inherit"
    ],
    "desc":"Sets the weight or boldness of the font."
  },
  "Fz":{
    "name":"Font Size",
    "template":"font-size: $0;",
    "values":[
      "<size>"
    ],
    "desc":"Sets the size of the font."
  },
  "Fs":{
    "name":"Font Style",
    "template":"font-style: $0;",
    "aliases":{
      "n":"normal",
      "i":"italic",
      "o":"oblique"
    },
    "values":[
      "italic",
      "normal",
      "oblique"
    ],
    "desc":"Sets font style within a font-family."
  },
  "Fv":{
    "name":"Font Variant",
    "template":"font-variant: $0;",
    "aliases":{
      "n":"normal",
      "sc":"small-caps"
    },
    "values":[
      "normal",
      "small-caps",
      "inherit"
    ],
    "desc":"properties: font-variant-caps, font-variant-numeric, font-variant-alternates, font-variant-ligatures, and font-variant-east-asian."
  },
  "H":{
    "name":"Height",
    "template":"height: $0;",
    "aliases":{
      "a":"auto",
      "av":"available",
      "bb":"border-box",
      "cb":"content-box",
      "fc":"fit-content",
      "maxc":"max-content",
      "minc":"min-content"
    },
    "values":[
      "<unit>",
      "auto",
      "inherit"
    ],
    "desc":"Sets the height of the content area of an element."
  },
  "Hy":{
    "name":"Hyphens",
    "template":"hyphens: $0;",
    "aliases":{
      "a":"auto",
      "n":"normal",
      "m":"manual"
    },
    "values":[
      "auto",
      "manual",
      "none"
    ],
    "desc":"Tells the browser how to hyphenate words when line-wrapping."
  },
  "Lts":{
    "name":"Letter Spacing",
    "template":"letter-spacing: $0;",
    "aliases":{
      "n":"normal"
    },
    "values":[
      "normal",
      "inherit"
    ],
    "desc":"Sets spacing behavior between text characters."
  },
  "List":{
    "name":"List Style Type",
    "template":"list-style-type: $0;",
    "aliases":{
      "n":"none",
      "d":"disc",
      "c":"circle",
      "s":"square",
      "dc":"decimal",
      "dclz":"decimal-leading-zero",
      "lr":"lower-roman",
      "lg":"lower-greek",
      "ll":"lower-latin",
      "ur":"upper-roman",
      "ul":"upper-latin",
      "a":"armenian",
      "g":"georgian",
      "la":"lower-alpha",
      "ua":"upper-alpha"
    },
    "values":[
      "armenian",
      "circle",
      "decimal",
      "decimal-leading-zero",
      "disc",
      "georgian",
      "lower-alpha",
      "lower-greek",
      "lower-latin",
      "lower-roman",
      "none",
      "square",
      "upper-alpha",
      "upper-latin",
      "upper-roman",
      "inherit"
    ],
    "desc":"Sets the appearance of a list item element."
  },
  "Lisp":{
    "name":"List Style Position",
    "template":"list-style-position: $0;",
    "aliases":{
      "i":"inside",
      "o":"outside"
    },
    "values":[
      "inside",
      "outside",
      "inherit"
    ],
    "desc":"Sets the position of the marker box in the principal block box"
  },
  "Lisi":{
    "name":"List Style Image",
    "template":"list-style-image: $0;",
    "aliases":{
      "n":"none"
    },
    "values":[
      "none",
      "url()",
      "inherit"
    ],
    "desc":"Sets an image to be used as the list item marker."
  },
  "Lh":{
    "name":"Line Height",
    "template":"line-height: $0;",
    "aliases":{
      "n":"normal"
    },
    "values":[
      "normal",
      "inherit"
    ],
    "desc":"block level elements, the line-height property specifies the minimum height of line boxes within the element"
  },
  "M":{
    "name":"Margin (all edges)",
    "template":"margin: $0 $1 $2 $3;",
    "aliases":{
      "a":"auto"
    },
    "values":[
      "<unit>",
      "<top> <right> <bottom> <left>",
      "auto",
      "inherit"
    ],
    "desc":"Sets the margins on all sides of an element. Margin space frames the element."
  },
  "Mx":{
    "name":"Margin (X axis)",
    "template":"margin-left: $0; margin-right: $0;",
    "aliases":{
      "a":"auto"
    },
    "values":[
      "<unit>",
      "<top> <right> <bottom> <left>",
      "auto",
      "inherit"
    ],
    "desc":"Sets the margins of the left and right sides of an element. Margin space frames the element."
  },
  "My":{
    "name":"Margin (Y axis)",
    "template":"margin-top: $0; margin-bottom: $0;",
    "aliases":{
      "a":"auto"
    },
    "values":[
      "<unit>",
      "<top> <right> <bottom> <left>",
      "auto",
      "inherit"
    ],
    "desc":"Sets the margins of the top and bottom sides of an element. Margin space frames the element."
  },
  "Mt":{
    "name":"Margin Top",
    "template":"margin-top: $0;",
    "aliases":{
      "a":"auto"
    },
    "values":[
      "<unit>",
      "auto",
      "inherit"
    ],
    "desc":"Sets the top margin of an element. Margin space frames the element."
  },
  "Mr":{
    "name":"Margin Right",
    "template":"margin-right: $0;",
    "aliases":{
      "a":"auto"
    },
    "values":[
      "<unit>",
      "auto",
      "inherit"
    ],
    "desc":"Sets the right margin of an element. Margin space frames the element."
  },
  "Mb":{
    "name":"Margin Bottom",
    "template":"margin-bottom: $0;",
    "aliases":{
      "a":"auto"
    },
    "values":[
      "<unit>",
      "auto",
      "inherit"
    ],
    "desc":"Sets the bottom margin of an element. Margin space frames the element."
  },
  "Ml":{
    "name":"Margin Left",
    "template":"margin-left: $0;",
    "aliases":{
      "a":"auto"
    },
    "values":[
      "<unit>",
      "auto",
      "inherit"
    ],
    "desc":"Sets the left margin of an element. Margin space frames the element."
  },
  "Mah":{
    "name":"Max Height",
    "template":"max-height: $0;",
    "aliases":{
      "a":"auto",
      "maxc":"max-content",
      "minc":"min-content",
      "fa":"fill-available",
      "fc":"fit-content"
    },
    "values":[
      "none",
      "inherit"
    ],
    "desc":"Used to set the maximum height of an element."
  },
  "Maw":{
    "name":"Max Width",
    "template":"max-width: $0;",
    "aliases":{
      "n":"none",
      "fa":"fill-available",
      "fc":"fit-content",
      "maxc":"max-content",
      "minc":"min-content"
    },
    "values":[
      "none",
      "inherit"
    ],
    "desc":"Used to set the maximum width of a given element."
  },
  "Mih":{
    "name":"Min Height",
    "template":"min-height: $0;",
    "aliases":{
      "a":"auto",
      "fa":"fill-available",
      "fc":"fit-content",
      "maxc":"max-content",
      "minc":"min-content"
    },
    "values":[
      "inherit"
    ],
    "desc":"Used to set the minimum height of a given element."
  },
  "Miw":{
    "name":"Min Width",
    "template":"min-width: $0;",
    "aliases":{
      "a":"auto",
      "fa":"fill-available",
      "fc":"fit-content",
      "maxc":"max-content",
      "minc":"min-content"
    },
    "values":[
      "inherit"
    ],
    "desc":"Used to set the minimum width of a given element."
  },
  "O":{
    "name":"Outline",
    "template":"outline: $0;",
    "aliases":{
      "n":"none"
    },
    "values":[
      "inherit"
    ],
    "desc":"properties outline-style, outline-width and outline-color in a single declaration."
  },
  "T":{
    "name":"Top",
    "template":"top: $0;",
    "aliases":{
      "a":"auto"
    },
    "values":[
      "auto",
      "inherit"
    ],
    "desc":"Sets part of the position of positioned elements."
  },
  "End":{
    "name":"End",
    "template":"right: $0;",
    "aliases":{
      "a":"auto"
    },
    "values":[
      "auto",
      "inherit"
    ],
    "desc":"Sets part of the position of positioned elements."
  },
  "B":{
    "name":"Bottom",
    "template":"bottom: $0;",
    "aliases":{
      "a":"auto"
    },
    "values":[
      "auto",
      "inherit"
    ],
    "desc":"Participates in specifying the position of positioned elements."
  },
  "Start":{
    "name":"Start",
    "template":"left: $0;",
    "aliases":{
      "a":"auto"
    },
    "values":[
      "auto",
      "inherit"
    ],
    "desc":"Sets part of the position of positioned elements."
  },
  "Op":{
    "name":"Opacity",
    "template":"opacity: $0;",
    "values":[
      "inherit"
    ],
    "desc":"Sets the transparency of an element, that is, the degree to which the background"
  },
  "Ov":{
    "name":"Overflow",
    "template":"overflow: $0;",
    "aliases":{
      "a":"auto",
      "h":"hidden",
      "s":"scroll",
      "v":"visible"
    },
    "values":[
      "auto",
      "hidden",
      "scroll",
      "visible",
      "inherit"
    ],
    "desc":"Sets whether to clip content, render scrollbars or just display content when when it overflows its block level container."
  },
  "Ovx":{
    "name":"Overflow (X axis)",
    "template":"overflow-x: $0;",
    "aliases":{
      "a":"auto",
      "h":"hidden",
      "s":"scroll",
      "v":"visible"
    },
    "values":[
      "auto",
      "hidden",
      "scroll",
      "visible",
      "inherit"
    ],
    "desc":"Sets whether to clip content, render a scroll bar, or display overflow content content of a block-level element, when it overflows at the left and right edges."
  },
  "Ovy":{
    "name":"Overflow (Y axis)",
    "template":"overflow-y: $0;",
    "aliases":{
      "a":"auto",
      "h":"hidden",
      "s":"scroll",
      "v":"visible"
    },
    "values":[
      "auto",
      "hidden",
      "scroll",
      "visible",
      "inherit"
    ],
    "desc":"Sets whether to clip content, render a scroll bar, or display overflow content content of a block-level element, when it overflows at the top and bottom edges."
  },
  "P":{
    "name":"Padding (all edges)",
    "template":"padding: $0;",
    "aliases":{
      "i":"inherit"
    },
    "values":[
      "<unit>",
      "<top> <right> <bottom> <left>",
      "inherit"
    ],
    "desc":"Sets the padding on all sides of an element. Padding space frames the content inside the content area."
  },
  "Px":{
    "name":"Padding (X axis)",
    "template":"padding-left: $0; padding-right: $0;",
    "values":[
      "<unit>",
      "<top> <right> <bottom> <left>",
      "inherit"
    ],
    "desc":"Sets the padding on the left and right sides of an element. Padding space frames the content inside the content area."
  },
  "Py":{
    "name":"Padding (Y axis)",
    "template":"padding-top: $0; padding-bottom: $0;",
    "values":[
      "<unit>",
      "<top> <right> <bottom> <left>",
      "inherit"
    ],
    "desc":"Sets the padding on the top and bottom sides of an element. Padding space frames the content inside the content area."
  },
  "Pt":{
    "name":"Padding Top",
    "template":"padding-top: $0;",
    "values":[
      "<unit>"
    ],
    "desc":"Sets the top padding of an element. Padding space frames the content inside the content area."
  },
  "Pr":{
    "name":"Padding Right",
    "template":"padding-right: $0;",
    "values":[
      "<unit>"
    ],
    "desc":"Sets the right padding of an element. Padding space frames the content inside the content area."
  },
  "Pb":{
    "name":"Padding Bottom",
    "template":"padding-bottom: $0;",
    "values":[
      "<unit>"
    ],
    "desc":"Sets the bottom padding of an element. Padding space frames the content inside the content area."
  },
  "Pl":{
    "name":"Padding Left",
    "template":"padding-left: $0;",
    "values":[
      "<unit>"
    ],
    "desc":"Sets the left padding of an element. Padding space frames the content inside the content area."
  },
  "Pe":{
    "name":"Pointer Events",
    "template":"pointer-events: $0;",
    "aliases":{
      "a":"auto",
      "all":"all",
      "f":"fill",
      "n":"none",
      "p":"painted",
      "s":"stroke",
      "v":"visible",
      "vf":"visibleFill",
      "vp":"visiblePainted",
      "vs":"visibleStroke"
    },
    "values":[
      "all",
      "auto",
      "fill",
      "inherit",
      "none",
      "painted",
      "stroke",
      "visible",
      "visibleFill",
      "visiblePainted",
      "visibleStroke"
    ],
    "desc":"Pointer-events allows authors to control under what circumstances (if any) a particular graphic element can become the target of mouse events."
  },
  "Pos":{
    "name":"Position",
    "template":"position: $0;",
    "aliases":{
      "a":"absolute",
      "f":"fixed",
      "r":"relative",
      "s":"static",
      "st":"sticky"
    },
    "values":[
      "absolute",
      "fixed",
      "relative",
      "static",
      "sticky",
      "inherit"
    ],
    "desc":"Sets alternative rules for positioning elements, designed to be useful for layout. Where possible flexbox is preferred."
  },
  "Tbl":{
    "name":"Table Layout",
    "template":"table-layout: $0;",
    "aliases":{
      "a":"auto",
      "f":"fixed"
    },
    "values":[
      "auto",
      "fixed",
      "inherit"
    ],
    "desc":"Defines the algorithm to be used to layout the table cells, rows, and columns"
  },
  "Ta":{
    "name":"Text Align",
    "template":"text-align: $0;",
    "aliases":{
      "c":"center",
      "e":"end",
      "r":"right",
      "j":"justify",
      "mp":"match-parent",
      "s":"start",
      "l":"left"
    },
    "values":[
      "center",
      "left",
      "justify",
      "right",
      "inherit"
    ],
    "desc":"Sets how inline content like text is aligned in its parent."
  },
  "Tal":{
    "name":"Text Align Last",
    "template":"text-align-last: $0;",
    "aliases":{
      "a":"auto",
      "c":"center",
      "e":"end",
      "r":"right",
      "j":"justify",
      "s":"start",
      "l":"left"
    },
    "values":[
      "center",
      "left",
      "justify",
      "right",
      "inherit"
    ],
    "desc":"Sets how the last line of a block or a line, right before a forced forced line break, is aligned."
  },
  "Td":{
    "name":"Text Decoration",
    "template":"text-decoration: $0;",
    "aliases":{
      "lt":"line-through",
      "n":"none",
      "o":"overline",
      "u":"underline"
    },
    "values":[
      "line-through",
      "none",
      "overline",
      "underline",
      "inherit"
    ],
    "desc":"Used to set the text formatting to underline, overline, line-through blink."
  },
  "Ti":{
    "name":"Text Indent",
    "template":"text-indent: $0;",
    "values":[
      "inherit"
    ],
    "desc":"Sets how much horizontal space should be left before the beginning of the the first line of the text content of an element."
  },
  "Tov":{
    "name":"Text Overflow",
    "template":"text-overflow: $0;",
    "aliases":{
      "c":"clip",
      "e":"ellipsis"
    },
    "values":[
      "clip",
      "ellipsis",
      "inherit"
    ],
    "desc":"Determines how overflowed content that is not displayed is signaled to users"
  },
  "Tren":{
    "name":"Text Rendering",
    "template":"text-rendering: $0;",
    "aliases":{
      "a":"auto",
      "os":"optimizeSpeed",
      "ol":"optimizeLegibility",
      "gp":"geometricPrecision"
    },
    "values":[
      "auto",
      "geometricPrecision",
      "optimizeLegibility",
      "optimizeSpeed"
    ],
    "desc":"Provides information to the rendering engine about what to optimize for for when rendering text."
  },
  "Tr":{
    "name":"Text Replace",
    "template":"text-replace: $0;",
    "aliases":{
      "n":"none"
    }
  },
  "Tt":{
    "name":"Text Transform",
    "template":"text-transform: $0;",
    "aliases":{
      "n":"none",
      "c":"capitalize",
      "u":"uppercase",
      "l":"lowercase"
    },
    "values":[
      "capitalize",
      "full-width",
      "lowercase",
      "none",
      "uppercase",
      "inherit"
    ],
    "desc":"Sets how to capitalize an element's text."
  },
  "Tsh":{
    "name":"Text Shadow",
    "template":"text-shadow: $0;",
    "aliases":{
      "n":"none"
    },
    "values":[
      "effect"
    ],
    "desc":"Adds shadows to text."
  },
  "Trf":{
    "name":"Transform",
    "template":"transform: $0;",
    "values":[
      "matrix()",
      "matrix3d()",
      "none",
      "perspective()",
      "rotate()",
      "rotate3d()",
      "rotateX()",
      "rotateY()",
      "rotateZ()",
      "scale()",
      "scale3d()",
      "scaleX()",
      "scaleY()",
      "scaleZ()",
      "skewX()",
      "skewY()",
      "translate()",
      "translate3d()",
      "translateX()",
      "translateY()",
      "translateZ()"
    ],
    "desc":"Lets you modify the coordinate space of the CSS visual formatting model."
  },
  "Trfo":{
    "name":"Transform Origin",
    "template":"transform-origin: $0 $1;",
    "aliases":{
      "t":"top",
      "r":"right",
      "bottom":"bottom",
      "l":"left",
      "c":"center"
    },
    "values":[
      "bottom",
      "center",
      "left",
      "right",
      "top"
    ],
    "desc":"Lets you modify the origin for transformations of an element."
  },
  "Trfs":{
    "name":"Transform Style",
    "template":"transform-style: $0;",
    "aliases":{
      "f":"flat",
      "p":"preserve-3d"
    },
    "values":[
      "flat",
      "preserve-3d"
    ],
    "desc":"Determines if the children of the element are positioned in the 3D-space"
  },
  "Prs":{
    "name":"Perspective",
    "template":"perspective: $0;",
    "aliases":{
      "n":"none"
    },
    "values":[
      "none"
    ],
    "desc":"Determines the distance between the z=0 plane and the user in order to give give to the 3D-positioned element some perspective."
  },
  "Prso":{
    "name":"Perspective Origin",
    "template":"perspective-origin: $0 $1;",
    "aliases":{
      "t":"top",
      "r":"right",
      "bottom":"bottom",
      "l":"left",
      "c":"center"
    },
    "values":[
      "bottom",
      "center",
      "left",
      "right",
      "top"
    ],
    "desc":"Determines the position the viewer is looking at."
  },
  "Bfv":{
    "name":"Backface Visibility",
    "template":"backface-visibility: $0;",
    "aliases":{
      "h":"hidden",
      "v":"visible"
    },
    "values":[
      "hidden",
      "visible"
    ],
    "desc":"CSS backface-visibility property determines whether or not the back face of the element is visible when always is a transparent background, letting, when visible, a mirror image of the front face be displayed"
  },
  "Matrix":{
    "name":"Matrix (transform)",
    "template":"transform: matrix($0);",
    "values":[
      "matrix()",
      "matrix3d()",
      "none",
      "perspective()",
      "rotate()",
      "rotate3d()",
      "rotateX()",
      "rotateY()",
      "rotateZ()",
      "scale()",
      "scale3d()",
      "scaleX()",
      "scaleY()",
      "scaleZ()",
      "skewX()",
      "skewY()",
      "translate()",
      "translate3d()",
      "translateX()",
      "translateY()",
      "translateZ()"
    ],
    "desc":"Lets you modify the coordinate space of the CSS visual formatting model."
  },
  "Matrix3d":{
    "name":"Matrix 3d (transform)",
    "template":"transform: matrix($0);",
    "values":[
      "matrix()",
      "matrix3d()",
      "none",
      "perspective()",
      "rotate()",
      "rotate3d()",
      "rotateX()",
      "rotateY()",
      "rotateZ()",
      "scale()",
      "scale3d()",
      "scaleX()",
      "scaleY()",
      "scaleZ()",
      "skewX()",
      "skewY()",
      "translate()",
      "translate3d()",
      "translateX()",
      "translateY()",
      "translateZ()"
    ],
    "desc":"Lets you modify the coordinate space of the CSS visual formatting model."
  },
  "Rsz":{
    "name":"Resize",
    "template":"resize: $0;",
    "aliases":{
      "n":"none",
      "b":"both",
      "h":"horizontal",
      "v":"vertical",
      "bl":"block",
      "in":"inline"
    },
    "desc":"Sets the resizability of an element."
  },
  "Rotate":{
    "name":"Rotate (transform)",
    "template":"transform: rotate($0);",
    "values":[
      "matrix()",
      "matrix3d()",
      "none",
      "perspective()",
      "rotate()",
      "rotate3d()",
      "rotateX()",
      "rotateY()",
      "rotateZ()",
      "scale()",
      "scale3d()",
      "scaleX()",
      "scaleY()",
      "scaleZ()",
      "skewX()",
      "skewY()",
      "translate()",
      "translate3d()",
      "translateX()",
      "translateY()",
      "translateZ()"
    ],
    "desc":"Lets you modify the coordinate space of the CSS visual formatting model."
  },
  "Rotate3d":{
    "name":"Rotate 3d (transform)",
    "template":"transform: rotate3d($0,$1,$2,$3);",
    "values":[
      "matrix()",
      "matrix3d()",
      "none",
      "perspective()",
      "rotate()",
      "rotate3d()",
      "rotateX()",
      "rotateY()",
      "rotateZ()",
      "scale()",
      "scale3d()",
      "scaleX()",
      "scaleY()",
      "scaleZ()",
      "skewX()",
      "skewY()",
      "translate()",
      "translate3d()",
      "translateX()",
      "translateY()",
      "translateZ()"
    ],
    "desc":"Lets you modify the coordinate space of the CSS visual formatting model."
  },
  "RotateX":{
    "name":"RotateX (transform)",
    "template":"transform: rotateX($0);",
    "values":[
      "matrix()",
      "matrix3d()",
      "none",
      "perspective()",
      "rotate()",
      "rotate3d()",
      "rotateX()",
      "rotateY()",
      "rotateZ()",
      "scale()",
      "scale3d()",
      "scaleX()",
      "scaleY()",
      "scaleZ()",
      "skewX()",
      "skewY()",
      "translate()",
      "translate3d()",
      "translateX()",
      "translateY()",
      "translateZ()"
    ],
    "desc":"Lets you modify the coordinate space of the CSS visual formatting model."
  },
  "RotateY":{
    "name":"RotateY (transform)",
    "template":"transform: rotateY($0);",
    "values":[
      "matrix()",
      "matrix3d()",
      "none",
      "perspective()",
      "rotate()",
      "rotate3d()",
      "rotateX()",
      "rotateY()",
      "rotateZ()",
      "scale()",
      "scale3d()",
      "scaleX()",
      "scaleY()",
      "scaleZ()",
      "skewX()",
      "skewY()",
      "translate()",
      "translate3d()",
      "translateX()",
      "translateY()",
      "translateZ()"
    ],
    "desc":"Lets you modify the coordinate space of the CSS visual formatting model."
  },
  "RotateZ":{
    "name":"RotateZ (transform)",
    "template":"transform: rotateZ($0);",
    "values":[
      "matrix()",
      "matrix3d()",
      "none",
      "perspective()",
      "rotate()",
      "rotate3d()",
      "rotateX()",
      "rotateY()",
      "rotateZ()",
      "scale()",
      "scale3d()",
      "scaleX()",
      "scaleY()",
      "scaleZ()",
      "skewX()",
      "skewY()",
      "translate()",
      "translate3d()",
      "translateX()",
      "translateY()",
      "translateZ()"
    ],
    "desc":"Lets you modify the coordinate space of the CSS visual formatting model."
  },
  "Scale":{
    "name":"Scale (transform)",
    "template":"transform: scale($0,$1);",
    "values":[
      "matrix()",
      "matrix3d()",
      "none",
      "perspective()",
      "rotate()",
      "rotate3d()",
      "rotateX()",
      "rotateY()",
      "rotateZ()",
      "scale()",
      "scale3d()",
      "scaleX()",
      "scaleY()",
      "scaleZ()",
      "skewX()",
      "skewY()",
      "translate()",
      "translate3d()",
      "translateX()",
      "translateY()",
      "translateZ()"
    ],
    "desc":"Lets you modify the coordinate space of the CSS visual formatting model."
  },
  "Scale3d":{
    "name":"Scale 3d (transform)",
    "template":"transform: scale3d($0,$1,$2);",
    "values":[
      "matrix()",
      "matrix3d()",
      "none",
      "perspective()",
      "rotate()",
      "rotate3d()",
      "rotateX()",
      "rotateY()",
      "rotateZ()",
      "scale()",
      "scale3d()",
      "scaleX()",
      "scaleY()",
      "scaleZ()",
      "skewX()",
      "skewY()",
      "translate()",
      "translate3d()",
      "translateX()",
      "translateY()",
      "translateZ()"
    ],
    "desc":"Lets you modify the coordinate space of the CSS visual formatting model."
  },
  "ScaleX":{
    "name":"ScaleX (transform)",
    "template":"transform: scaleX($0);",
    "values":[
      "matrix()",
      "matrix3d()",
      "none",
      "perspective()",
      "rotate()",
      "rotate3d()",
      "rotateX()",
      "rotateY()",
      "rotateZ()",
      "scale()",
      "scale3d()",
      "scaleX()",
      "scaleY()",
      "scaleZ()",
      "skewX()",
      "skewY()",
      "translate()",
      "translate3d()",
      "translateX()",
      "translateY()",
      "translateZ()"
    ],
    "desc":"Lets you modify the coordinate space of the CSS visual formatting model."
  },
  "ScaleY":{
    "name":"ScaleY (transform)",
    "template":"transform: scaleY($0);",
    "values":[
      "matrix()",
      "matrix3d()",
      "none",
      "perspective()",
      "rotate()",
      "rotate3d()",
      "rotateX()",
      "rotateY()",
      "rotateZ()",
      "scale()",
      "scale3d()",
      "scaleX()",
      "scaleY()",
      "scaleZ()",
      "skewX()",
      "skewY()",
      "translate()",
      "translate3d()",
      "translateX()",
      "translateY()",
      "translateZ()"
    ],
    "desc":"Lets you modify the coordinate space of the CSS visual formatting model."
  },
  "Skew":{
    "name":"Skew (transform)",
    "template":"transform: skew($0,$1);",
    "values":[
      "matrix()",
      "matrix3d()",
      "none",
      "perspective()",
      "rotate()",
      "rotate3d()",
      "rotateX()",
      "rotateY()",
      "rotateZ()",
      "scale()",
      "scale3d()",
      "scaleX()",
      "scaleY()",
      "scaleZ()",
      "skewX()",
      "skewY()",
      "translate()",
      "translate3d()",
      "translateX()",
      "translateY()",
      "translateZ()"
    ],
    "desc":"Lets you modify the coordinate space of the CSS visual formatting model."
  },
  "SkewX":{
    "name":"SkewX (transform)",
    "template":"transform: skewX($0);",
    "values":[
      "matrix()",
      "matrix3d()",
      "none",
      "perspective()",
      "rotate()",
      "rotate3d()",
      "rotateX()",
      "rotateY()",
      "rotateZ()",
      "scale()",
      "scale3d()",
      "scaleX()",
      "scaleY()",
      "scaleZ()",
      "skewX()",
      "skewY()",
      "translate()",
      "translate3d()",
      "translateX()",
      "translateY()",
      "translateZ()"
    ],
    "desc":"Lets you modify the coordinate space of the CSS visual formatting model."
  },
  "SkewY":{
    "name":"SkewY (transform)",
    "template":"transform: skewY($0);",
    "values":[
      "matrix()",
      "matrix3d()",
      "none",
      "perspective()",
      "rotate()",
      "rotate3d()",
      "rotateX()",
      "rotateY()",
      "rotateZ()",
      "scale()",
      "scale3d()",
      "scaleX()",
      "scaleY()",
      "scaleZ()",
      "skewX()",
      "skewY()",
      "translate()",
      "translate3d()",
      "translateX()",
      "translateY()",
      "translateZ()"
    ],
    "desc":"Lets you modify the coordinate space of the CSS visual formatting model."
  },
  "Translate":{
    "name":"Translate (transform)",
    "template":"transform: translate($0,$1);",
    "values":[
      "matrix()",
      "matrix3d()",
      "none",
      "perspective()",
      "rotate()",
      "rotate3d()",
      "rotateX()",
      "rotateY()",
      "rotateZ()",
      "scale()",
      "scale3d()",
      "scaleX()",
      "scaleY()",
      "scaleZ()",
      "skewX()",
      "skewY()",
      "translate()",
      "translate3d()",
      "translateX()",
      "translateY()",
      "translateZ()"
    ],
    "desc":"Lets you modify the coordinate space of the CSS visual formatting model."
  },
  "Translate3d":{
    "name":"Translate 3d (transform)",
    "template":"transform: translate3d($0,$1,$2);",
    "values":[
      "matrix()",
      "matrix3d()",
      "none",
      "perspective()",
      "rotate()",
      "rotate3d()",
      "rotateX()",
      "rotateY()",
      "rotateZ()",
      "scale()",
      "scale3d()",
      "scaleX()",
      "scaleY()",
      "scaleZ()",
      "skewX()",
      "skewY()",
      "translate()",
      "translate3d()",
      "translateX()",
      "translateY()",
      "translateZ()"
    ],
    "desc":"Lets you modify the coordinate space of the CSS visual formatting model."
  },
  "TranslateX":{
    "name":"Translate X (transform)",
    "template":"transform: translateX($0);",
    "values":[
      "matrix()",
      "matrix3d()",
      "none",
      "perspective()",
      "rotate()",
      "rotate3d()",
      "rotateX()",
      "rotateY()",
      "rotateZ()",
      "scale()",
      "scale3d()",
      "scaleX()",
      "scaleY()",
      "scaleZ()",
      "skewX()",
      "skewY()",
      "translate()",
      "translate3d()",
      "translateX()",
      "translateY()",
      "translateZ()"
    ],
    "desc":"Lets you modify the coordinate space of the CSS visual formatting model."
  },
  "TranslateY":{
    "name":"Translate Y (transform)",
    "template":"transform: translateY($0);",
    "values":[
      "matrix()",
      "matrix3d()",
      "none",
      "perspective()",
      "rotate()",
      "rotate3d()",
      "rotateX()",
      "rotateY()",
      "rotateZ()",
      "scale()",
      "scale3d()",
      "scaleX()",
      "scaleY()",
      "scaleZ()",
      "skewX()",
      "skewY()",
      "translate()",
      "translate3d()",
      "translateX()",
      "translateY()",
      "translateZ()"
    ],
    "desc":"Lets you modify the coordinate space of the CSS visual formatting model."
  },
  "TranslateZ":{
    "name":"Translate Z (transform)",
    "template":"transform: translateZ($0);",
    "values":[
      "matrix()",
      "matrix3d()",
      "none",
      "perspective()",
      "rotate()",
      "rotate3d()",
      "rotateX()",
      "rotateY()",
      "rotateZ()",
      "scale()",
      "scale3d()",
      "scaleX()",
      "scaleY()",
      "scaleZ()",
      "skewX()",
      "skewY()",
      "translate()",
      "translate3d()",
      "translateX()",
      "translateY()",
      "translateZ()"
    ],
    "desc":"Lets you modify the coordinate space of the CSS visual formatting model."
  },
  "Trs":{
    "name":"Transition",
    "template":"transition: $0;",
    "values":[
      "<prop>,<duration>,<time-func>,<delay>"
    ],
    "desc":"A shorthand property for transition-property, transition-duration, transition-timing-function, and transition-delay."
  },
  "Trsde":{
    "name":"Transition Delay",
    "template":"transition-delay: $0;",
    "aliases":{
      "i":"initial"
    },
    "values":[
      "<time>"
    ],
    "desc":"Sets the amount of time to wait between a change being requested to to a property that is to be transitioned and the start of the transition effect."
  },
  "Trsdu":{
    "name":"Transition Duration",
    "template":"transition-duration: $0;",
    "values":[
      "<time>"
    ],
    "desc":"Sets the number of seconds or milliseconds a transition animation"
  },
  "Trsp":{
    "name":"Transition Property",
    "template":"transition-property: $0;",
    "aliases":{
      "a":"all"
    },
    "values":[
      "all",
      "none"
    ],
    "desc":"Used to specify the names of CSS properties to which a transition"
  },
  "Trstf":{
    "name":"Transition Timing Function",
    "template":"transition-timing-function: $0;",
    "aliases":{
      "e":"ease",
      "ei":"ease-in",
      "eo":"ease-out",
      "eio":"ease-in-out",
      "l":"linear",
      "ss":"step-start",
      "se":"step-end"
    },
    "values":[
      "cubic-bezier(.42, 0, .58, 1)",
      "ease",
      "ease-in",
      "ease-in-out",
      "ease-out",
      "linear",
      "step-end",
      "step-start",
      "steps()"
    ],
    "desc":"Used to describe how the intermediate values of the CSS properties CSS properties being affected by a transition effect are calculated."
  },
  "Us":{
    "name":"User Select",
    "template":"user-select: $0;",
    "aliases":{
      "a":"all",
      "el":"element",
      "els":"elements",
      "n":"none",
      "t":"text",
      "to":"toggle"
    }
  },
  "Va":{
    "name":"Vertical Align",
    "template":"vertical-align: $0;",
    "aliases":{
      "b":"bottom",
      "bl":"baseline",
      "m":"middle",
      "sub":"sub",
      "sup":"super",
      "t":"top",
      "tb":"text-bottom",
      "tt":"text-top"
    },
    "values":[
      "baseline",
      "bottom",
      "middle",
      "sub",
      "super",
      "text-bottom",
      "text-top",
      "top",
      "inherit"
    ],
    "desc":"Sets the vertical alignment of an inline or table-cell box."
  },
  "V":{
    "name":"Visibility",
    "template":"visibility: $0;",
    "aliases":{
      "v":"visible",
      "h":"hidden",
      "c":"collapse"
    },
    "values":[
      "collapse",
      "hidden",
      "visible",
      "inherit"
    ],
    "desc":"Can be used to hide an element while leaving the space where it would have been"
  },
  "Whs":{
    "name":"White Space",
    "template":"white-space: $0;",
    "aliases":{
      "n":"normal",
      "p":"pre",
      "nw":"nowrap",
      "pw":"pre-wrap",
      "pl":"pre-line"
    },
    "values":[
      "normal",
      "nowrap",
      "pre",
      "pre-line",
      "pre-wrap",
      "inherit"
    ],
    "desc":"Used to describe how whitespace inside the element is handled."
  },
  "Whsc":{
    "name":"White Space Collapse",
    "template":"white-space-collapse: $0;",
    "aliases":{
      "n":"normal",
      "ka":"keep-all",
      "l":"loose",
      "bs":"break-strict",
      "ba":"break-all"
    }
  },
  "W":{
    "name":"Width",
    "template":"width: $0;",
    "aliases":{
      "a":"auto",
      "bb":"border-box",
      "cb":"content-box",
      "av":"available",
      "minc":"min-content",
      "maxc":"max-content",
      "fc":"fit-content"
    },
    "values":[
      "<unit>",
      "auto",
      "inherit"
    ],
    "desc":"Sets the width of the content area of an element."
  },
  "Wob":{
    "name":"Word Break",
    "template":"word-break: $0;",
    "aliases":{
      "ba":"break-all",
      "ka":"keep-all",
      "n":"normal"
    },
    "values":[
      "normal",
      "break-all",
      "keep-all"
    ],
    "desc":"Used to specify whether to break lines within words."
  },
  "Ws":{
    "name":"Word Spacing",
    "template":"word-spacing: $0;",
    "aliases":{
      "i":"inherit",
      "in":"initial",
      "u":"unset"
    },
    "values":[
      "normal",
      "<percent>",
      "<length>"
    ],
    "desc":"Sets the space between tags and words."
  },
  "Wow":{
    "name":"Word Wrap",
    "template":"word-wrap: $0;",
    "aliases":{
      "bw":"break-word",
      "n":"normal"
    },
    "values":[
      "break-word",
      "normal"
    ],
    "desc":"Used to specify whether or not the browser may break lines within words in order"
  },
  "Z":{
    "name":"Z Index",
    "template":"z-index: $0;",
    "aliases":{
      "a":"auto"
    },
    "values":[
      "auto",
      "inherit"
    ],
    "desc":"Sets the z-order of an element and its descendants."
  },
  "Fill":{
    "name":"Fill (SVG)",
    "template":"fill: $0;"
  },
  "Stk":{
    "name":"Stroke (SVG)",
    "template":"stroke: $0;"
  },
  "Stkw":{
    "name":"Stroke Width (SVG)",
    "template":"stroke-width: $0;",
    "aliases":{
      "i":"inherit"
    }
  },
  "Stklc":{
    "name":"Stroke Linecap (SVG)",
    "template":"stroke-linecap: $0;",
    "aliases":{
      "i":"inherit",
      "b":"butt",
      "r":"round",
      "s":"square"
    }
  },
  "Stklj":{
    "name":"Stroke Linejoin (SVG)",
    "template":"stroke-linejoin: $0;",
    "aliases":{
      "i":"inherit",
      "b":"bevel",
      "r":"round",
      "m":"miter"
    }
  }
}
